#t(au)          #E(au)
0	          -0.000129302	
45.7404	      -0.000123625	
91.4808	      -0.000113646	
137.221	      -0.00010264	
182.962	      -9.06931e-05	
228.702	      -7.79164e-05	
274.443	      -6.43831e-05	
320.183	      -5.01974e-05	
365.923	      -3.54308e-05	
411.664	      -2.0184e-05	
457.404	      -4.53733e-06	
503.145	      1.14082e-05	
548.885	      2.75551e-05	
594.626	      4.37983e-05	
640.366	      6.00186e-05	
686.106	      7.61038e-05	
731.847	      9.19136e-05	
777.587	      0.000107328	
823.328	      0.00012219	
869.068	      0.000136375	
914.808	      0.000149721	
960.549	      0.000162099	
1006.29	      0.000173359	
1052.03	      0.000183375	
1097.77	      0.00019202	
1143.51	      0.000199182	
1189.25	      0.000204768	
1234.99	      0.000208687	
1280.73	      0.00021089	
1326.47	      0.000211316	
1372.21	      0.000209962	
1417.95	      0.000206803	
1463.69	      0.00020188	
1509.43	      0.000195213	
1555.17	      0.000186874	
1600.91	      0.000176931	
1646.66	      0.000165483	
1692.4	      0.00015264	
1738.14	      0.000138522	
1783.88	      0.000123272	
1829.62	      0.000107032	
1875.36	      8.99705e-05	
1921.1	      7.22463e-05	
1966.84	      5.40428e-05	
2012.58	      3.55345e-05	
2058.32	      1.69096e-05	
2104.06	      -1.65109e-06	
2149.8	      -1.99636e-05	
2195.54	      -3.78516e-05	
2241.28	      -5.51453e-05	
2287.02	      -7.16842e-05	
2332.76	      -8.73222e-05	
2378.5	      -0.000101924	
2424.24	      -0.000115376	
2469.98	      -0.000127575	
2515.72	      -0.000138445	
2561.46	      -0.00014792	
2607.2	      -0.000155961	
2652.94	      -0.000162539	
2698.68	      -0.00016765	
2744.43	      -0.000171302	
2790.17	      -0.000173515	
2835.91	      -0.000174327	
2881.65	      -0.000173775	
2927.39	      -0.000171917	
2973.13	      -0.000168795	
3018.87	      -0.000164477	
3064.61	      -0.000159002	
3110.35	      -0.000152435	
3156.09	      -0.000144812	
3201.83	      -0.000136186	
3247.57	      -0.000126591	
3293.31	      -0.000116066	
3339.05	      -0.000104648	
3384.79	      -9.23724e-05	
3430.53	      -7.9283e-05	
3476.27	      -6.54198e-05	
3522.01	      -5.08435e-05	
3567.75	      -3.56098e-05	
3613.49	      -1.98015e-05	
3659.23	      -3.49997e-06	
3704.97	      1.31859e-05	
3750.71	      3.0144e-05	
3796.46	      4.72392e-05	
3842.2	      6.43288e-05	
3887.94	      8.1256e-05	
3933.68	      9.78537e-05	
3979.42	      0.000113953	
4025.16	      0.000129372	
4070.9	      0.000143944	
4116.64	      0.000157486	
4162.38	      0.000169845	
4208.12	      0.000180855	
4253.86	      0.000190387	
4299.6	      0.000198309	
4345.34	      0.000204524	
4391.08	      0.00020895	
4436.82	      0.000211528	
4482.56	      0.000212233	
4528.3	      0.000211052	
4574.04	      0.000208014	
4619.78	      0.000203155	
4665.52	      0.000196552	
4711.26	      0.000188283	
4757	      0.000178462	
4802.74	      0.000167197	
4848.48	      0.000154627	
4894.23	      0.000140883	
4939.97	      0.000126113	
4985.71	      0.000110467	
5031.45	      9.40985e-05	
5077.19	      7.71676e-05	
5122.93	      5.98281e-05	
5168.67	      4.22479e-05	
5214.41	      2.45784e-05	
5260.15	      6.98661e-06	
5305.89	      -1.03815e-05	
5351.63	      -2.73682e-05	
5397.37	      -4.38376e-05	
5443.11	      -5.965e-05	
5488.85	      -7.46845e-05	
5534.59	      -8.88274e-05	
5580.33	      -0.000101977	
5626.07	      -0.000114052	
5671.81	      -0.000124973	
5717.55	      -0.000134692	
5763.29	      -0.000143157	
5809.03	      -0.00015035	
5854.77	      -0.000156248	
5900.51	      -0.000160856	
5946.26	      -0.000164179	
5992	      -0.000166239	
6037.74	      -0.000167059	
6083.48	      -0.00016667	
6129.22	      -0.000165105	
6174.96	      -0.000162393	
6220.7	      -0.000158566	
6266.44	      -0.000153642	
6312.18	      -0.000147648	
6357.92	      -0.00014059	
6403.66	      -0.00013249	
6449.4	      -0.000123348	
6495.14	      -0.000113187	
6540.88	      -0.00010202	
6586.62	      -8.98769e-05	
6632.36	      -7.67964e-05	
6678.1	      -6.28293e-05	
6723.84	      -4.80465e-05	
6769.58	      -3.25264e-05	
6815.32	      -1.63773e-05	
6861.06	      2.91239e-07	
6906.8	      1.73354e-05	
6952.54	      3.46147e-05	
6998.28	      5.19569e-05	
7044.03	      6.91955e-05	
7089.77	      8.61418e-05	
7135.51	      0.000102612	
7181.25	      0.000118415	
7226.99	      0.000133363	
7272.73	      0.000147277	
7318.47	      0.000159979	
7364.21	      0.000171316	
7409.95	      0.000181136	
7455.69	      0.000189322	
7501.43	      0.000195765	
7547.17	      0.000200395	
7592.91	      0.000203155	
7638.65	      0.000204028	
7684.39	      0.000203019	
7730.13	      0.000200165	
7775.87	      0.000195529	
7821.61	      0.000189195	
7867.35	      0.000181277	
7913.09	      0.000171892	
7958.83	      0.000161185	
8004.57	      0.000149293	
8050.31	      0.000136376	
8096.05	      0.000122579	
8141.8	      0.000108064	
8187.54	      9.29772e-05	
8233.28	      7.74721e-05	
8279.02	      6.16921e-05	
8324.76	      4.57775e-05	
8370.5	      2.98651e-05	
8416.24	      1.40781e-05	
8461.98	      -1.45635e-06	
8507.72	      -1.66333e-05	
8553.46	      -3.13395e-05	
8599.2	      -4.54878e-05	
8644.94	      -5.89818e-05	
8690.68	      -7.17506e-05	
8736.42	      -8.37176e-05	
8782.16	      -9.48257e-05	
8827.9	      -0.00010502	
8873.64	      -0.000114255	
8919.38	      -0.000122496	
8965.12	      -0.000129712	
9010.86	      -0.000135889	
9056.6	      -0.000141006	
9102.34	      -0.000145069	
9148.08	      -0.00014807	
9193.83	      -0.000150028	
9239.57	      -0.000150948	
9285.31	      -0.000150854	
9331.05	      -0.000149754	
9376.79	      -0.000147666	
9422.53	      -0.000144596	
9468.27	      -0.000140542	
9514.01	      -0.000135501	
9559.75	      -0.000129457	
9605.49	      -0.000122401	
9651.23	      -0.000114312	
9696.97	      -0.00010519	
9742.71	      -9.50291e-05	
9788.45	      -8.38516e-05	
9834.19	      -7.16823e-05	
9879.93	      -5.8576e-05	
9925.67	      -4.46001e-05	
9971.41	      -2.98461e-05	
10017.2	      -1.44276e-05	
10062.9	      1.52778e-06	
10108.6	      1.78642e-05	
10154.4	      3.44232e-05	
10200.1	      5.10167e-05	
10245.9	      6.74642e-05	
10291.6	      8.35601e-05	
10337.3	      9.91134e-05	
10383.1	      0.000113918	
10428.8	      0.000127785	
10474.6	      0.000140526	
10520.3	      0.000151969	
10566	      0.000161959	
10611.8	      0.000170355	
10657.5	      0.000177053	
10703.3	      0.000181962	
10749	      0.000185038	
10794.7	      0.000186253	
10840.5	      0.000185632	
10886.2	      0.000183215	
10932	      0.000179091	
10977.7	      0.000173362	
11023.4	      0.000166163	
11069.2	      0.000157638	
11114.9	      0.000147946	
11160.7	      0.000137255	
11206.4	      0.000125725	
11252.1	      0.000113526	
11297.9	      0.000100806	
11343.6	      8.77224e-05	
11389.4	      7.44047e-05	
11435.1	      6.09875e-05	
11480.8	      4.75787e-05	
11526.6	      3.42857e-05	
11572.3	      2.11955e-05	
11618.1	      8.38766e-06	
11663.8	      -4.06919e-06	
11709.5	      -1.61208e-05	
11755.3	      -2.7713e-05	
11801	      -3.88112e-05	
11846.8	      -4.93718e-05	
11892.5	      -5.93724e-05	
11938.3	      -6.87762e-05	
11984	      -7.75659e-05	
12029.7	      -8.57099e-05	
12075.5	      -9.31905e-05	
12121.2	      -9.99818e-05	
12167	      -0.000106064	
12212.7	      -0.000111421	
12258.4	      -0.000116033	
12304.2	      -0.000119895	
12349.9	      -0.000122994	
12395.7	      -0.000125337	
12441.4	      -0.000126916	
12487.1	      -0.000127742	
12532.9	      -0.000127804	
12578.6	      -0.000127103	
12624.4	      -0.000125614	
12670.1	      -0.000123312	
12715.8	      -0.000120154	
12761.6	      -0.000116091	
12807.3	      -0.000111072	
12853.1	      -0.000105043	
12898.8	      -9.7969e-05	
12944.5	      -8.98133e-05	
12990.3	      -8.0575e-05	
13036	      -7.02583e-05	
13081.8	      -5.8909e-05	
13127.5	      -4.65838e-05	
13173.2	      -3.3379e-05	
13219	      -1.94074e-05	
13264.7	      -4.81159e-06	
13310.5	      1.02447e-05	
13356.2	      2.55822e-05	
13401.9	      4.09986e-05	
13447.7	      5.62922e-05	
13493.4	      7.12399e-05	
13539.2	      8.56336e-05	
13584.9	      9.92505e-05	
13630.6	      0.000111893	
13676.4	      0.000123362	
13722.1	      0.000133489	
13767.9	      0.00014212	
13813.6	      0.000149134	
13859.3	      0.000154444	
13905.1	      0.000157998	
13950.8	      0.000159793	
13996.6	      0.000159852	
14042.3	      0.000158256	
14088.1	      0.000155102	
14133.8	      0.000150534	
14179.5	      0.0001447	
14225.3	      0.000137774	
14271	      0.000129923	
14316.8	      0.00012132	
14362.5	      0.000112124	
14408.2	      0.000102487	
14454	      9.25474e-05	
14499.7	      8.24207e-05	
14545.5	      7.22186e-05	
14591.2	      6.20222e-05	
14636.9	      5.19136e-05	
14682.7	      4.19433e-05	
14728.4	      3.2166e-05	
14774.2	      2.26086e-05	
14819.9	      1.3302e-05	
14865.6	      4.25828e-06	
14911.4	      -4.51013e-06	
14957.1	      -1.29975e-05	
15002.9	      -2.12027e-05	
15048.6	      -2.91188e-05	
15094.3	      -3.67488e-05	
15140.1	      -4.40795e-05	
15185.8	      -5.11113e-05	
15231.6	      -5.78235e-05	
15277.3	      -6.42099e-05	
15323	      -7.02449e-05	
15368.8	      -7.59157e-05	
15414.5	      -8.11977e-05	
15460.3	      -8.60749e-05	
15506	      -9.05305e-05	
15551.7	      -9.45485e-05	
15597.5	      -9.81218e-05	
15643.2	      -0.000101233	
15689	      -0.000103875	
15734.7	      -0.000106019	
15780.4	      -0.000107639	
15826.2	      -0.000108678	
15871.9	      -0.000109074	
15917.7	      -0.000108739	
15963.4	      -0.00010758	
16009.1	      -0.000105493	
16054.9	      -0.00010238	
16100.6	      -9.81564e-05	
16146.4	      -9.27499e-05	
16192.1	      -8.61249e-05	
16237.9	      -7.82631e-05	
16283.6	      -6.91955e-05	
16329.3	      -5.89708e-05	
16375.1	      -4.76896e-05	
16420.8	      -3.54688e-05	
16466.6	      -2.24692e-05	
16512.3	      -8.86583e-06	
16558	      5.13801e-06	
16603.8	      1.93275e-05	
16649.5	      3.34793e-05	
16695.3	      4.73617e-05	
16741	      6.07549e-05	
16786.7	      7.34343e-05	
16832.5	      8.52047e-05	
16878.2	      9.58725e-05	
16924	      0.000105286	
16969.7	      0.000113303	
17015.4	      0.000119833	
17061.2	      0.000124808	
17106.9	      0.00012821	
17152.7	      0.000130056	
17198.4	      0.000130405	
17244.1	      0.000129359	
17289.9	      0.000127037	
17335.6	      0.000123598	
17381.4	      0.000119195	
17427.1	      0.000114003	
17472.8	      0.000108176	
17518.6	      0.000101875	
17564.3	      9.52325e-05	
17610.1	      8.83752e-05	
17655.8	      8.14046e-05	
17701.5	      7.44081e-05	
17747.3	      6.74554e-05	
17793	      6.05946e-05	
17838.8	      5.38671e-05	
17884.5	      4.72877e-05	
17930.2	      4.08734e-05	
17976	      3.46134e-05	
18021.7	      2.85052e-05	
18067.5	      2.25216e-05	
18113.2	      1.66453e-05	
18158.9	      1.08424e-05	
18204.7	      5.08627e-06	
18250.4	      -6.54843e-07	
18296.2	      -6.41044e-06	
18341.9	      -1.22027e-05	
18387.7	      -1.80572e-05	
18433.4	      -2.39813e-05	
18479.1	      -2.99901e-05	
18524.9	      -3.60737e-05	
18570.6	      -4.22314e-05	
18616.4	      -4.84364e-05	
18662.1	      -5.46689e-05	
18707.8	      -6.08881e-05	
18753.6	      -6.70547e-05	
18799.3	      -7.31165e-05	
18845.1	      -7.90142e-05	
18890.8	      -8.46839e-05	
18936.5	      -9.00436e-05	
18982.3	      -9.50117e-05	
19028	      -9.94787e-05	
19073.8	      -0.000103339	
19119.5	      -0.000106457	
19165.2	      -0.000108707	
19211	      -0.000109948	
19256.7	      -0.000110055	
19302.5	      -0.000108911	
19348.2	      -0.000106427	
19393.9	      -0.000102543	
19439.7	      -9.72306e-05	
19485.4	      -9.0507e-05	
19531.2	      -8.24178e-05	
19576.9	      -7.30613e-05	
19622.6	      -6.25545e-05	
19668.4	      -5.10636e-05	
19714.1	      -3.87628e-05	
19759.9	      -2.5863e-05	
19805.6	      -1.25744e-05	
19851.3	      8.75356e-07	
19897.1	      1.42644e-05	
19942.8	      2.73746e-05	
19988.6	      3.99955e-05	
20034.3	      5.19386e-05	
20080	      6.30233e-05	
20125.8	      7.31045e-05	
20171.5	      8.20453e-05	
20217.3	      8.97535e-05	
20263	      9.61491e-05	
20308.7	      0.000101201	
20354.5	      0.0001049	
20400.2	      0.000107282	
20446	      0.000108414	
20491.7	      0.000108396	
20537.4	      0.000107357	
20583.2	      0.00010544	
20628.9	      0.000102807	
20674.7	      9.96074e-05	
20720.4	      9.60009e-05	
20766.2	      9.21167e-05	
20811.9	      8.80845e-05	
20857.6	      8.39969e-05	
20903.4	      7.9939e-05	
20949.1	      7.5963e-05	
20994.9	      7.21062e-05	
21040.6	      6.83831e-05	
21086.3	      6.47874e-05	
21132.1	      6.13025e-05	
21177.8	      5.78868e-05	
21223.6	      5.45007e-05	
21269.3	      5.10787e-05	
21315	      4.75661e-05	
21360.8	      4.38866e-05	
21406.5	      3.99792e-05	
21452.3	      3.57695e-05	
21498	      3.11991e-05	
21543.7	      2.62084e-05	
21589.5	      2.07501e-05	
21635.2	      1.47897e-05	
21681	      8.3004e-06	
21726.7	      1.28015e-06	
21772.4	      -6.26991e-06	
21818.2	      -1.43154e-05	
21863.9	      -2.28214e-05	
21909.7	      -3.17176e-05	
21955.4	      -4.09329e-05	
22001.1	      -5.03652e-05	
22046.9	      -5.99084e-05	
22092.6	      -6.94348e-05	
22138.4	      -7.88072e-05	
22184.1	      -8.78777e-05	
22229.8	      -9.64828e-05	
22275.6	      -0.00010446	
22321.3	      -0.000111626	
22367.1	      -0.000117814	
22412.8	      -0.000122843	
22458.5	      -0.000126563	
22504.3	      -0.000128823	
22550	      -0.000129516	
22595.8	      -0.000128552	
22641.5	      -0.000125888	
22687.2	      -0.000121518	
22733	      -0.00011548	
22778.7	      -0.000107857	
22824.5	      -9.87654e-05	
22870.2	      -8.83666e-05	
22916	      -7.68373e-05	
22961.7	      -6.4394e-05	
23007.4	      -5.12502e-05	
23053.2	      -3.76455e-05	
23098.9	      -2.38048e-05	
23144.7	      -9.96064e-06	
23190.4	      3.6743e-06	
23236.1	      1.68984e-05	
23281.9	      2.9529e-05	
23327.6	      4.14103e-05	
23373.4	      5.24013e-05	
23419.1	      6.23989e-05	
23464.8	      7.13113e-05	
23510.6	      7.90914e-05	
23556.3	      8.57044e-05	
23602.1	      9.11632e-05	
23647.8	      9.5497e-05	
23693.5	      9.87786e-05	
23739.3	      0.0001011	
23785	      0.000102579	
23830.8	      0.000103351	
23876.5	      0.000103549	
23922.2	      0.000103316	
23968	      0.000102769	
24013.7	      0.000102023	
24059.5	      0.000101156	
24105.2	      0.000100239	
24150.9	      9.93002e-05	
24196.7	      9.83604e-05	
24242.4	      9.74051e-05	
24288.2	      9.64097e-05	
24333.9	      9.53276e-05	
24379.6	      9.40991e-05	
24425.4	      9.26584e-05	
24471.1	      9.0924e-05	
24516.9	      8.88225e-05	
24562.6	      8.62643e-05	
24608.3	      8.3179e-05	
24654.1	      7.9482e-05	
24699.8	      7.51141e-05	
24745.6	      7.00082e-05	
24791.3	      6.41225e-05	
24837	      5.74179e-05	
24882.8	      4.98755e-05	
24928.5	      4.14914e-05	
24974.3	      3.22751e-05	
25020	      2.22618e-05	
25065.8	      1.14934e-05	
25111.5	      4.52009e-08	
25157.2	      -1.20055e-05	
25203	      -2.45457e-05	
25248.7	      -3.74614e-05	
25294.5	      -5.06059e-05	
25340.2	      -6.38297e-05	
25385.9	      -7.69581e-05	
25431.7	      -8.98081e-05	
25477.4	      -0.000102183	
25523.2	      -0.000113873	
25568.9	      -0.000124669	
25614.6	      -0.000134348	
25660.4	      -0.000142713	
25706.1	      -0.000149566	
25751.9	      -0.000154755	
25797.6	      -0.000158137	
25843.3	      -0.000159619	
25889.1	      -0.000159129	
25934.8	      -0.000156648	
25980.6	      -0.000152194	
26026.3	      -0.000145829	
26072	      -0.000137663	
26117.8	      -0.000127832	
26163.5	      -0.000116521	
26209.3	      -0.000103925	
26255	      -9.02794e-05	
26300.7	      -7.58139e-05	
26346.5	      -6.07851e-05	
26392.2	      -4.54308e-05	
26438	      -2.99969e-05	
26483.7	      -1.47032e-05	
26529.4	      2.42585e-07	
26575.2	      1.46596e-05	
26620.9	      2.83965e-05	
26666.7	      4.13253e-05	
26712.4	      5.33594e-05	
26758.1	      6.44298e-05	
26803.9	      7.45147e-05	
26849.6	      8.3605e-05	
26895.4	      9.17358e-05	
26941.1	      9.89501e-05	
26986.8	      0.000105321	
27032.6	      0.000110924	
27078.3	      0.000115845	
27124.1	      0.000120166	
27169.8	      0.000123962	
27215.6	      0.000127306	
27261.3	      0.000130243	
27307	      0.000132819	
27352.8	      0.000135044	
27398.5	      0.00013693	
27444.3	      0.000138457	
27490	      0.000139607	
27535.7	      0.000140335	
27581.5	      0.000140599	
27627.2	      0.000140339	
27673	      0.000139497	
27718.7	      0.000138011	
27764.4	      0.000135812	
27810.2	      0.000132844	
27855.9	      0.000129039	
27901.7	      0.000124352	
27947.4	      0.000118727	
27993.1	      0.000112134	
28038.9	      0.000104536	
28084.6	      9.59258e-05	
28130.4	      8.62942e-05	
28176.1	      7.56558e-05	
28221.8	      6.40363e-05	
28267.6	      5.14765e-05	
28313.3	      3.8039e-05	
28359.1	      2.37938e-05	
28404.8	      8.8404e-06	
28450.5	      -6.71964e-06	
28496.3	      -2.27519e-05	
28542	      -3.91221e-05	
28587.8	      -5.5665e-05	
28633.5	      -7.22142e-05	
28679.2	      -8.8579e-05	
28725	      -0.000104564	
28770.7	      -0.000119961	
28816.5	      -0.000134552	
28862.2	      -0.000148121	
28907.9	      -0.000160444	
28953.7	      -0.000171312	
28999.4	      -0.000180511	
29045.2	      -0.000187858	
29090.9	      -0.000193172	
29136.6	      -0.00019632	
29182.4	      -0.000197194	
29228.1	      -0.000195744	
29273.9	      -0.000191952	
29319.6	      -0.000185853	
29365.4	      -0.00017753	
29411.1	      -0.000167105	
29456.8	      -0.000154756	
29502.6	      -0.000140685	
29548.3	      -0.000125144	
29594.1	      -0.000108393	
29639.8	      -9.07251e-05	
29685.5	      -7.24241e-05	
29731.3	      -5.37848e-05	
29777	      -3.50772e-05	
29822.8	      -1.65588e-05	
29868.5	      1.54552e-06	
29914.2	      1.90444e-05	
29960	      3.57804e-05	
30005.7	      5.16435e-05	
30051.5	      6.65534e-05	
30097.2	      8.04823e-05	
30142.9	      9.34239e-05	
30188.7	      0.000105444	
30234.4	      0.000116712	
30280.2	      0.000127552	
30325.9	      0.000138333	
30371.6	      0.000149395	
30417.4	      0.000161024	
30463.1	      0.000173444	
30508.9	      0.000186818	
30554.6	      0.000201222	
30600.3	      0.000216665	
30646.1	      0.000233058	
30691.8	      0.000250255	
30737.6	      0.000268012	
30783.3	      0.000286044	
30829	      0.000303985	
30874.8	      0.000321441	
30920.5	      0.000337969	
30966.3	      0.000353108	
31012	      0.000366383	
31057.7	      0.000377315	
31103.5	      0.000385443	
31149.2	      0.000390317	
31195	      0.000391533	
31240.7	      0.000388712	
31286.4	      0.000381544	
31332.2	      0.00036976	
31377.9	      0.000353171	
31423.7	      0.000331647	
31469.4	      0.000305147	
31515.2	      0.000273705	
31560.9	      0.000237439	
31606.6	      0.000196562	
31652.4	      0.000151366	
31698.1	      0.000102243	
31743.9	      4.96596e-05	
31789.6	      -5.81694e-06	
31835.3	      -6.35583e-05	
31881.1	      -0.000122843	
31926.8	      -0.000182905	
31972.6	      -0.000242908	
32018.3	      -0.000301988	
32064	      -0.00035925	
32109.8	      -0.000413791	
32155.5	      -0.000464723	
32201.3	      -0.000511178	
32247	      -0.000552351	
32292.7	      -0.000587484	
32338.5	      -0.000615933	
32384.2	      -0.000637132	
32430	      -0.000650673	
32475.7	      -0.000656267	
32521.4	      -0.000653803	
32567.2	      -0.000643324	
32612.9	      -0.000625055	
32658.7	      -0.000599389	
32704.4	      -0.000566879	
32750.1	      -0.000528225	
32795.9	      -0.000484239	
32841.6	      -0.000435831	
32887.4	      -0.000383949	
32933.1	      -0.000329566	
32978.8	      -0.000273621	
33024.6	      -0.000217002	
33070.3	      -0.000160501	
33116.1	      -0.000104809	
33161.8	      -5.04829e-05	
33207.5	      2.04288e-06	
33253.3	      5.24601e-05	
33299	      0.000100583	
33344.8	      0.000146317	
33390.5	      0.000189663	
33436.2	      0.000230667	
33482	      0.000269476	
33527.7	      0.000306455	
33573.5	      0.000342474	
33619.2	      0.000378813	
33665	      0.000416797	
33710.7	      0.00045746	
33756.4	      0.000501539	
33802.2	      0.000549501	
33847.9	      0.000601525	
33893.7	      0.000657523	
33939.4	      0.000717104	
33985.1	      0.000779642	
34030.9	      0.000844244	
34076.6	      0.000909837	
34122.4	      0.000975155	
34168.1	      0.00103882	
34213.8	      0.00109935	
34259.6	      0.00115523	
34305.3	      0.00120489	
34351.1	      0.00124684	
34396.8	      0.00127958	
34442.5	      0.00130174	
34488.3	      0.00131203	
34534	      0.00130929	
34579.8	      0.00129249	
34625.5	      0.00126078	
34671.2	      0.00121346	
34717	      0.00115001	
34762.7	      0.0010701	
34808.5	      0.00097359	
34854.2	      0.000860535	
34899.9	      0.000731197	
34945.7	      0.000586044	
34991.4	      0.00042576	
35037.2	      0.00025124	
35082.9	      6.36164e-05	
35128.6	      -0.000135772	
35174.4	      -0.000345327	
35220.1	      -0.000563248	
35265.9	      -0.000787466	
35311.6	      -0.00101571	
35357.3	      -0.00124545	
35403.1	      -0.00147396	
35448.8	      -0.0016983	
35494.6	      -0.00191535	
35540.3	      -0.00212184	
35586	      -0.0023144	
35631.8	      -0.00248961	
35677.5	      -0.00264402	
35723.3	      -0.00277434	
35769	      -0.00287737	
35814.8	      -0.00295022	
35860.5	      -0.00299035	
35906.2	      -0.00299568	
35952	      -0.00296468	
35997.7	      -0.00289647	
36043.5	      -0.00279093	
36089.2	      -0.00264863	
36134.9	      -0.0024708	
36180.7	      -0.00225903	
36226.4	      -0.00201533	
36272.2	      -0.00174231	
36317.9	      -0.0014434	
36363.6	      -0.00112277	
36409.4	      -0.000785289	
36455.1	      -0.000436352	
36500.9	      -8.17109e-05	
36546.6	      0.000272747	
36592.3	      0.000621237	
36638.1	      0.000958257	
36683.8	      0.00127878	
36729.6	      0.00157843	
36775.3	      0.00185364	
36821	      0.00210179	
36866.8	      0.00232107	
36912.5	      0.00251046	
36958.3	      0.00266963	
37004	      0.00279896	
37049.7	      0.00289943	
37095.5	      0.00297276	
37141.2	      0.00302048	
37187	      0.00304438	
37232.7	      0.00304725	
37278.4	      0.00303152	
37324.2	      0.00299966	
37369.9	      0.0029541	
37415.7	      0.00289723	
37461.4	      0.00283145	
37507.1	      0.00275884	
37552.9	      0.00268105	
37598.6	      0.00259921	
37644.4	      0.00251402	
37690.1	      0.00242611	
37735.8	      0.00233655	
37781.6	      0.00224685	
37827.3	      0.00215845	
37873.1	      0.00207213	
37918.8	      0.00198832	
37964.6	      0.00190727	
38010.3	      0.00182915	
38056	      0.00175402	
38101.8	      0.00168187	
38147.5	      0.00161262	
38193.3	      0.00154652	
38239	      0.00148301	
38284.7	      0.00142174	
38330.5	      0.00136329	
38376.2	      0.00130711	
38422	      0.0012534	
38467.7	      0.00120179	
38513.4	      0.00115226	
38559.2	      0.00110467	
38604.9	      0.00105879	
38650.7	      0.00101447	
38696.4	      0.000971559	
38742.1	      0.00092987	
38787.9	      0.000889261	
38833.6	      0.000849536	
38879.4	      0.000810495	
38925.1	      0.000772026	
38970.8	      0.000734072	
39016.6	      0.000696353	
39062.3	      0.000658777	
39108.1	      0.000621194	
39153.8	      0.000583493	
39199.5	      0.000545654	
39245.3	      0.000507557	
39291	      0.000469192	
39336.8	      0.000430479	
39382.5	      0.000391375	
39428.2	      0.000352016	
39474	      0.000312047	
39519.7	      0.000271418	
39565.5	      0.000230374	
39611.2	      0.000189055	
39656.9	      0.000147496	
39702.7	      0.000105701	
39748.4	      6.37103e-05	
39794.2	      2.15776e-05	
39839.9	      -2.06364e-05	
39885.6	      -6.28728e-05	
39931.4	      -0.000105066	
39977.1	      -0.000147169	
40022.9	      -0.000189072	
40068.6	      -0.000230566	
40114.4	      -0.000271537	
40160.1	      -0.000312053	
40205.8	      -0.000352193	
40251.6	      -0.000391907	
40297.3	      -0.000431239	
40343.1	      -0.000470181	
40388.8	      -0.000508763	
40434.5	      -0.000547025	
40480.3	      -0.000585007	
40526	      -0.000622759	
40571.8	      -0.000660279	
40617.5	      -0.000697639	
40663.2	      -0.000734978	
40709	      -0.000772425	
40754.7	      -0.000810396	
40800.5	      -0.000849064	
40846.2	      -0.000888486	
40891.9	      -0.000928801	
40937.7	      -0.000970289	
40983.4	      -0.00101305	
41029.2	      -0.00105726	
41074.9	      -0.00110309	
41120.6	      -0.0011507	
41166.4	      -0.00120026	
41212.1	      -0.00125191	
41257.9	      -0.00130576	
41303.6	      -0.00136192	
41349.3	      -0.00142055	
41395.1	      -0.00148174	
41440.8	      -0.00154561	
41486.6	      -0.00161226	
41532.3	      -0.00168171	
41578	      -0.00175407	
41623.8	      -0.0018292	
41669.5	      -0.00190687	
41715.3	      -0.00198674	
41761	      -0.00207016	
41806.7	      -0.00215572	
41852.5	      -0.00224292	
41898.2	      -0.00233123	
41944	      -0.00241995	
41989.7	      -0.00250822	
42035.4	      -0.00259497	
42081.2	      -0.00267895	
42126.9	      -0.00275868	
42172.7	      -0.00283249	
42218.4	      -0.00289858	
42264.2	      -0.00295523	
42309.9	      -0.00300063	
42355.6	      -0.00303269	
42401.4	      -0.003049	
42447.1	      -0.00304698	
42492.9	      -0.00302409	
42538.6	      -0.00297794	
42584.3	      -0.00290636	
42630.1	      -0.00280734	
42675.8	      -0.00267921	
42721.6	      -0.00252075	
42767.3	      -0.00233153	
42813	      -0.0021121	
42858.8	      -0.00186362	
42904.5	      -0.00158792	
42950.3	      -0.00128805	
42996	      -0.000967641	
43041.7	      -0.000631043	
43087.5	      -0.000283186	
43133.2	      7.05329e-05	
43179	      0.000424445	
43224.7	      0.000772807	
43270.4	      0.00110996	
43316.2	      0.00143058	
43361.9	      0.00172982	
43407.7	      0.0020035	
43453.4	      0.00224818	
43499.1	      0.00246116	
43544.9	      0.00264034	
43590.6	      0.00278402	
43636.4	      0.00289097	
43682.1	      0.00296053	
43727.8	      0.00299284	
43773.6	      0.00298879	
43819.3	      0.00294989	
43865.1	      0.00287826	
43910.8	      0.00277643	
43956.5	      0.00264735	
44002.3	      0.00249418	
44048	      0.00232027	
44093.8	      0.00212903	
44139.5	      0.0019239	
44185.2	      0.00170825	
44231	      0.00148533	
44276.7	      0.00125825	
44322.5	      0.00102993	
44368.2	      0.000803089	
44414	      0.000580203	
44459.7	      0.000363557	
44505.4	      0.000155146	
44551.2	      -4.32121e-05	
44596.9	      -0.00022999	
44642.7	      -0.000403842	
44688.4	      -0.000563688	
44734.1	      -0.00070864	
44779.9	      -0.000838043	
44825.6	      -0.000951446	
44871.4	      -0.0010486	
44917.1	      -0.00112947	
44962.8	      -0.00119419	
45008.6	      -0.00124312	
45054.3	      -0.00127674	
45100.1	      -0.00129578	
45145.8	      -0.00130106	
45191.5	      -0.0012936	
45237.3	      -0.00127454	
45283	      -0.00124512	
45328.8	      -0.00120671	
45374.5	      -0.00116074	
45420.2	      -0.00110869	
45466	      -0.00105205	
45511.7	      -0.000992304	
45557.5	      -0.000930872	
45603.2	      -0.00086909	
45648.9	      -0.000808158	
45694.7	      -0.000749111	
45740.4	      -0.000692772	
45786.2	      -0.000639734	
45831.9	      -0.000590325	
45877.6	      -0.000544598	
45923.4	      -0.000502323	
45969.1	      -0.000462996	
46014.9	      -0.000425866	
46060.6	      -0.00038991	
46106.3	      -0.000353856	
46152.1	      -0.000316374	
46197.8	      -0.000276593	
46243.6	      -0.000234187	
46289.3	      -0.000189175	
46335	      -0.000141639	
46380.8	      -9.17242e-05	
46426.5	      -3.96248e-05	
46472.3	      1.43875e-05	
46518	      6.9956e-05	
46563.8	      0.000126641	
46609.5	      0.000183894	
46655.2	      0.000241096	
46701	      0.000297526	
46746.7	      0.000352424	
46792.5	      0.000404961	
46838.2	      0.000454315	
46883.9	      0.000499657	
46929.7	      0.000540211	
46975.4	      0.000575258	
47021.2	      0.000604176	
47066.9	      0.000626451	
47112.6	      0.000641693	
47158.4	      0.000649649	
47204.1	      0.000650196	
47249.9	      0.000643359	
47295.6	      0.000629274	
47341.3	      0.000608221	
47387.1	      0.000580573	
47432.8	      0.000546821	
47478.6	      0.000507533	
47524.3	      0.00046336	
47570	      0.00041501	
47615.8	      0.000363235	
47661.5	      0.000308819	
47707.3	      0.000252546	
47753	      0.000195212	
47798.7	      0.000137571	
47844.5	      8.03696e-05	
47890.2	      2.42824e-05	
47936	      -3.00433e-05	
47981.7	      -8.20426e-05	
48027.4	      -0.000131199	
48073.2	      -0.000177078	
48118.9	      -0.00021931	
48164.7	      -0.000257599	
48210.4	      -0.000291728	
48256.1	      -0.000321543	
48301.9	      -0.00034697	
48347.6	      -0.000367991	
48393.4	      -0.000384667	
48439.1	      -0.000397104	
48484.8	      -0.000405476	
48530.6	      -0.000409995	
48576.3	      -0.000410928	
48622.1	      -0.000408567	
48667.8	      -0.00040324	
48713.6	      -0.000395292	
48759.3	      -0.000385077	
48805	      -0.000372957	
48850.8	      -0.000359275	
48896.5	      -0.000344372	
48942.3	      -0.000328543	
48988	      -0.000312068	
49033.7	      -0.000295164	
49079.5	      -0.000278015	
49125.2	      -0.000260734	
49171	      -0.000243387	
49216.7	      -0.000225972	
49262.4	      -0.000208432	
49308.2	      -0.000190659	
49353.9	      -0.000172488	
49399.7	      -0.000153736	
49445.4	      -0.00013423	
49491.1	      -0.000113881	
49536.9	      -9.26386e-05	
49582.6	      -7.04894e-05	
49628.4	      -4.74208e-05	
49674.1	      -2.3458e-05	
49719.8	      1.35283e-06	
49765.6	      2.69223e-05	
49811.3	      5.31212e-05	
49857.1	      7.97785e-05	
49902.8	      0.000106671	
49948.5	      0.000133543	
49994.3	      0.000160083	
50040	      0.000185963	
50085.8	      0.000210812	
50131.5	      0.000234261	
50177.2	      0.00025592	
50223	      0.000275424	
50268.7	      0.000292415	
50314.5	      0.000306578	
50360.2	      0.000317635	
50405.9	      0.00032536	
50451.7	      0.000329592	
50497.4	      0.00033022	
50543.2	      0.000327214	
50588.9	      0.000320593	
50634.6	      0.000310461	
50680.4	      0.000296963	
50726.1	      0.000280316	
50771.9	      0.000260765	
50817.6	      0.000238606	
50863.4	      0.000214162	
50909.1	      0.000187788	
50954.8	      0.000159863	
51000.6	      0.00013077	
51046.3	      0.000100912	
51092.1	      7.0671e-05	
51137.8	      4.04394e-05	
51183.5	      1.05755e-05	
51229.3	      -1.85655e-05	
51275	      -4.66703e-05	
51320.8	      -7.34409e-05	
51366.5	      -9.86232e-05	
51412.2	      -0.000121991	
51458	      -0.000143358	
51503.7	      -0.000162579	
51549.5	      -0.000179539	
51595.2	      -0.000194174	
51640.9	      -0.000206443	
51686.7	      -0.000216358	
51732.4	      -0.000223947	
51778.2	      -0.000229288	
51823.9	      -0.00023247	
51869.6	      -0.000233624	
51915.4	      -0.00023289	
51961.1	      -0.000230429	
52006.9	      -0.000226417	
52052.6	      -0.000221031	
52098.3	      -0.000214457	
52144.1	      -0.00020687	
52189.8	      -0.000198448	
52235.6	      -0.00018934	
52281.3	      -0.000179694	
52327	      -0.00016962	
52372.8	      -0.000159217	
52418.5	      -0.000148541	
52464.3	      -0.000137633	
52510	      -0.000126494	
52555.7	      -0.000115103	
52601.5	      -0.000103418	
52647.2	      -9.13695e-05	
52693	      -7.88852e-05	
52738.7	      -6.58729e-05	
52784.4	      -5.22557e-05	
52830.2	      -3.7947e-05	
52875.9	      -2.28916e-05	
52921.7	      -7.03887e-06	
52967.4	      9.61932e-06	
53013.2	      2.7069e-05	
53058.9	      4.5248e-05	
53104.6	      6.40549e-05	
53150.4	      8.33412e-05	
53196.1	      0.000102908	
53241.9	      0.000122518	
53287.6	      0.000141885	
53333.3	      0.0001607	
53379.1	      0.000178615	
53424.8	      0.000195286	
53470.6	      0.000210351	
53516.3	      0.000223473	
53562	      0.00023433	
53607.8	      0.000242641	
53653.5	      0.000248172	
53699.3	      0.000250745	
53745	      0.00025025	
53790.7	      0.000246639	
53836.5	      0.000239944	
53882.2	      0.000230249	
53928	      0.000217716	
53973.7	      0.000202546	
54019.4	      0.000185016	
54065.2	      0.000165437	
54110.9	      0.000144172	
54156.7	      0.000121594	
54202.4	      9.80917e-05	
54248.1	      7.40527e-05	
54293.9	      4.98527e-05	
54339.6	      2.58602e-05	
54385.4	      2.41014e-06	
54431.1	      -2.01755e-05	
54476.8	      -4.16235e-05	
54522.6	      -6.16795e-05	
54568.3	      -8.01452e-05	
54614.1	      -9.68481e-05	
54659.8	      -0.00011167	
54705.5	      -0.000124528	
54751.3	      -0.000135382	
54797	      -0.000144234	
54842.8	      -0.000151119	
54888.5	      -0.000156116	
54934.2	      -0.000159323	
54980	      -0.000160879	
55025.7	      -0.000160931	
55071.5	      -0.00015966	
55117.2	      -0.000157245	
55163	      -0.000153886	
55208.7	      -0.000149773	
55254.4	      -0.000145103	
55300.2	      -0.000140057	
55345.9	      -0.000134803	
55391.7	      -0.000129492	
55437.4	      -0.000124242	
55483.1	      -0.000119153	
55528.9	      -0.000114278	
55574.6	      -0.000109652	
55620.4	      -0.000105257	
55666.1	      -0.000101056	
55711.8	      -9.69648e-05	
55757.6	      -9.28858e-05	
55803.3	      -8.86874e-05	
55849.1	      -8.4229e-05	
55894.8	      -7.93585e-05	
55940.5	      -7.39194e-05	
55986.3	      -6.77657e-05	
56032	      -6.07516e-05	
56077.8	      -5.2762e-05	
56123.5	      -4.36886e-05	
56169.2	      -3.34695e-05	
56215	      -2.2061e-05	
56260.7	      -9.47617e-06	
56306.5	      4.24023e-06	
56352.2	      1.89837e-05	
56397.9	      3.46062e-05	
56443.7	      5.0907e-05	
56489.4	      6.7636e-05	
56535.2	      8.4508e-05	
56580.9	      0.000101193	
56626.6	      0.000117352	
56672.4	      0.000132617	
56718.1	      0.000146637	
56763.9	      0.000159063	
56809.6	      0.000169587	
56855.3	      0.000177931	
56901.1	      0.000183879	
56946.8	      0.000187272	
56992.6	      0.000188019	
57038.3	      0.0001861	
57084	      0.00018156	
57129.8	      0.000174516	
57175.5	      0.000165138	
57221.3	      0.000153667	
57267	      0.000140373	
57312.8	      0.000125575	
57358.5	      0.000109595	
57404.2	      9.27774e-05	
57450	      7.54558e-05	
57495.7	      5.79626e-05	
57541.5	      4.06111e-05	
57587.2	      2.36916e-05	
57632.9	      7.47193e-06	
57678.7	      -7.82277e-06	
57724.4	      -2.19912e-05	
57770.2	      -3.48877e-05	
57815.9	      -4.63907e-05	
57861.6	      -5.64386e-05	
57907.4	      -6.4994e-05	
57953.1	      -7.20744e-05	
57998.9	      -7.77221e-05	
58044.6	      -8.20214e-05	
58090.3	      -8.5082e-05	
58136.1	      -8.70377e-05	
58181.8	      -8.80469e-05	
58227.6	      -8.8273e-05	
58273.3	      -8.79007e-05	
58319	      -8.71016e-05	
58364.8	      -8.60621e-05	
58410.5	      -8.49421e-05	
58456.3	      -8.39051e-05	
58502	      -8.30807e-05	
58547.7	      -8.25875e-05	
58593.5	      -8.25085e-05	
58639.2	      -8.29003e-05	
58685	      -8.37872e-05	
58730.7	      -8.51541e-05	
58776.4	      -8.69606e-05	
58822.2	      -8.91197e-05	
58867.9	      -9.15286e-05	
58913.7	      -9.40399e-05	
58959.4	      -9.65008e-05	
59005.1	      -9.87241e-05	
59050.9	      -0.000100527	
59096.6	      -0.000101709	
59142.4	      -0.000102083	
59188.1	      -0.000101461	
59233.8	      -9.96736e-05	
59279.6	      -9.65746e-05	
59325.3	      -9.20354e-05	
59371.1	      -8.59718e-05	
59416.8	      -7.83214e-05	
59462.6	      -6.90808e-05	
59508.3	      -5.82747e-05	
59554	      -4.59943e-05	
59599.8	      -3.2365e-05	
59645.5	      -1.75752e-05	
59691.3	      -1.85079e-06	
59737	      1.45346e-05	
59782.7	      3.12729e-05	
59828.5	      4.80339e-05	
59874.2	      6.44644e-05	
59920	      8.02204e-05	
59965.7	      9.49539e-05	
60011.4	      0.000108357	
60057.2	      0.000120141	
60102.9	      0.00013008	
60148.7	      0.000137989	
60194.4	      0.000143756	
60240.1	      0.000147324	
60285.9	      0.000148705	
60331.6	      0.000147967	
60377.4	      0.000145228	
60423.1	      0.000140662	
60468.8	      0.000134463	
60514.6	      0.000126867	
60560.3	      0.000118111	
60606.1	      0.000108456	
60651.8	      9.81481e-05	
60697.5	      8.74428e-05	
60743.3	      7.65701e-05	
60789	      6.57529e-05	
60834.8	      5.51852e-05	
60880.5	      4.5036e-05	
60926.2	      3.54472e-05	
60972	      2.65211e-05	
61017.7	      1.8338e-05	
61063.5	      1.09298e-05	
61109.2	      4.31265e-06	
61154.9	      -1.54587e-06	
61200.7	      -6.68851e-06	
61246.4	      -1.11989e-05	
61292.2	      -1.51672e-05	
61337.9	      -1.87102e-05	
61383.6	      -2.19497e-05	
61429.4	      -2.50157e-05	
61475.1	      -2.80426e-05	
61520.9	      -3.11546e-05	
61566.6	      -3.44791e-05	
61612.3	      -3.81169e-05	
61658.1	      -4.21692e-05	
61703.8	      -4.66995e-05	
61749.6	      -5.17658e-05	
61795.3	      -5.73838e-05	
61841.1	      -6.35555e-05	
61886.8	      -7.02427e-05	
61932.5	      -7.73838e-05	
61978.3	      -8.48856e-05	
62024	      -9.26241e-05	
62069.8	      -0.000100456	
62115.5	      -0.000108203	
62161.2	      -0.000115684	
62207	      -0.000122686	
62252.7	      -0.000129006	
62298.5	      -0.00013442	
62344.2	      -0.000138725	
62389.9	      -0.000141717	
62435.7	      -0.000143215	
62481.4	      -0.00014306	
62527.2	      -0.000141121	
62572.9	      -0.000137306	
62618.6	      -0.000131556	
62664.4	      -0.000123867	
62710.1	      -0.000114269	
62755.9	      -0.000102855	
62801.6	      -8.97508e-05	
62847.3	      -7.51473e-05	
62893.1	      -5.92629e-05	
62938.8	      -4.23694e-05	
62984.6	      -2.47588e-05	
63030.3	      -6.75354e-06	
63076	      1.13145e-05	
63121.8	      2.91133e-05	
63167.5	      4.63149e-05	
63213.3	      6.26227e-05	
63259	      7.77583e-05	
63304.7	      9.14996e-05	
63350.5	      0.000103654	
63396.2	      0.0001141	
63442	      0.000122748	
63487.7	      0.00012958	
63533.4	      0.000134612	
63579.2	      0.00013791	
63624.9	      0.000139572	
63670.7	      0.000139723	
63716.4	      0.000138514	
63762.1	      0.000136098	
63807.9	      0.000132647	
63853.6	      0.00012832	
63899.4	      0.000123287	
63945.1	      0.000117693	
63990.9	      0.000111686	
64036.6	      0.000105388	
64082.3	      9.89106e-05	
64128.1	      9.23422e-05	
64173.8	      8.57529e-05	
64219.6	      7.91927e-05	
64265.3	      7.26861e-05	
64311	      6.62468e-05	
64356.8	      5.98572e-05	
64402.5	      5.34988e-05	
64448.3	      4.71216e-05	
64494	      4.06821e-05	
64539.7	      3.41114e-05	
64585.5	      2.73508e-05	
64631.2	      2.03277e-05	
64677	      1.29801e-05	
64722.7	      5.24683e-06	
64768.4	      -2.92465e-06	
64814.2	      -1.15706e-05	
64859.9	      -2.07211e-05	
64905.7	      -3.03765e-05	
64951.4	      -4.05327e-05	
64997.1	      -5.11468e-05	
65042.9	      -6.21708e-05	
65088.6	      -7.35157e-05	
65134.4	      -8.50842e-05	
65180.1	      -9.67434e-05	
65225.8	      -0.000108348	
65271.6	      -0.000119727	
65317.3	      -0.000130696	
65363.1	      -0.000141061	
65408.8	      -0.000150609	
65454.5	      -0.000159142	
65500.3	      -0.000166444	
65546	      -0.000172327	
65591.8	      -0.0001766	
65637.5	      -0.00017911	
65683.2	      -0.000179713	
65729	      -0.000178311	
65774.7	      -0.000174833	
65820.5	      -0.000169252	
65866.2	      -0.000161583	
65911.9	      -0.000151882	
65957.7	      -0.000140259	
66003.4	      -0.000126852	
66049.2	      -0.000111857	
66094.9	      -9.54873e-05	
66140.7	      -7.80057e-05	
66186.4	      -5.968e-05	
66232.1	      -4.08095e-05	
66277.9	      -2.16867e-05	
66323.6	      -2.61179e-06	
66369.4	      1.6132e-05	
66415.1	      3.42792e-05	
66460.8	      5.15877e-05	
66506.6	      6.78545e-05	
66552.3	      8.29017e-05	
66598.1	      9.66036e-05	
66643.8	      0.000108857	
66689.5	      0.000119612	
66735.3	      0.000128837	
66781	      0.000136548	
66826.8	      0.000142772	
66872.5	      0.000147568	
66918.2	      0.000151006	
66964	      0.000153168	
67009.7	      0.000154148	
67055.5	      0.000154033	
67101.2	      0.000152924	
67146.9	      0.000150901	
67192.7	      0.000148057	
67238.4	      0.000144456	
67284.2	      0.000140172	
67329.9	      0.000135253	
67375.6	      0.000129746	
67421.4	      0.000123681	
67467.1	      0.000117082	
67512.9	      0.00010996	
67558.6	      0.00010232	
67604.3	      9.41627e-05	
67650.1	      8.54775e-05	
67695.8	      7.62636e-05	
67741.6	      6.6504e-05	
67787.3	      5.62014e-05	
67833	      4.53449e-05	
67878.8	      3.39463e-05	
67924.5	      2.20117e-05	
67970.3	      9.56756e-06	
68016	      -3.35443e-06	
68061.7	      -1.67074e-05	
68107.5	      -3.04283e-05	
68153.2	      -4.44455e-05	
68199	      -5.86621e-05	
68244.7	      -7.2979e-05	
68290.5	      -8.72666e-05	
68336.2	      -0.000101398	
68381.9	      -0.000115217	
68427.7	      -0.000128571	
68473.4	      -0.000141288	
68519.2	      -0.000153196	
68564.9	      -0.000164119	
68610.6	      -0.00017388	
68656.4	      -0.000182312	
68702.1	      -0.000189249	
68747.9	      -0.000194549	
68793.6	      -0.000198075	
68839.3	      -0.000199727	
68885.1	      -0.000199414	
68930.8	      -0.00019709	
68976.6	      -0.000192726	
69022.3	      -0.000186338	
69068	      -0.00017797	
69113.8	      -0.000167703	
69159.5	      -0.000155653	
69205.3	      -0.000141963	
69251	      -0.000126813	
69296.7	      -0.000110396	
69342.5	      -9.29389e-05	
69388.2	      -7.46677e-05	
69434	      -5.58334e-05	
69479.7	      -3.66723e-05	
69525.4	      -1.74345e-05	
69571.2	      1.65341e-06	
69616.9	      2.0366e-05	
69662.7	      3.85034e-05	
69708.4	      5.58825e-05	
69754.1	      7.23423e-05	
69799.9	      8.77511e-05	
69845.6	      0.000101993	
69891.4	      0.00011499	
69937.1	      0.000126672	
69982.8	      0.000137009	
70028.6	      0.000145972	
70074.3	      0.000153569	
70120.1	      0.000159808	
70165.8	      0.000164717	
70211.5	      0.000168329	
70257.3	      0.000170684	
70303	      0.000171827	
70348.8	      0.000171796	
70394.5	      0.000170641	
70440.3	      0.000168391	
70486	      0.000165092	
70531.7	      0.000160766	
70577.5	      0.00015545	
70623.2	      0.00014916	
70669	      0.000141929	
70714.7	      0.000133771	
70760.4	      0.000124715	
70806.2	      0.000114785	
70851.9	      0.000104009	
70897.7	      9.24234e-05	
70943.4	      8.00639e-05	
70989.1	      6.69846e-05	
71034.9	      5.32323e-05	
71080.6	      3.88799e-05	
71126.4	      2.39912e-05	
71172.1	      8.65661e-06	
71217.8	      -7.03929e-06	
71263.6	      -2.29899e-05	
71309.3	      -3.90884e-05	
71355.1	      -5.52141e-05	
71400.8	      -7.12387e-05	
71446.5	      -8.70301e-05	
71492.3	      -0.000102442	
71538	      -0.000117334	
71583.8	      -0.000131548	
71629.5	      -0.00014494	
71675.2	      -0.000157353	
71721	      -0.000168644	
71766.7	      -0.000178664	
71812.5	      -0.000187286	
71858.2	      -0.000194383	
71903.9	      -0.000199848	
71949.7	      -0.000203591	
71995.4	      -0.000205536	
72041.2	      -0.000205637	
72086.9	      -0.000203862	
72132.6	      -0.000200215	
72178.4	      -0.00019471	
72224.1	      -0.000187403	
72269.9	      -0.000178357	
72315.6	      -0.000167676	
72361.3	      -0.00015547	
72407.1	      -0.000141879	
72452.8	      -0.000127055	
72498.6	      -0.000111163	
72544.3	      -9.43813e-05	
72590.1	      -7.68898e-05	
72635.8	      -5.8882e-05	
72681.5	      -4.0538e-05	
72727.3	      -2.20527e-05	
72773	      -3.59818e-06	
72818.8	      1.46425e-05	
72864.5	      3.25118e-05	
72910.2	      4.98494e-05	
72956	      6.65174e-05	
73001.7	      8.23852e-05	
73047.5	      9.73379e-05	
73093.2	      0.000111278	
73138.9	      0.000124116	
73184.7	      0.000135786	
73230.4	      0.000146222	
73276.2	      0.000155388	
73321.9	      0.00016324	
73367.6	      0.00016976	
73413.4	      0.000174925	
73459.1	      0.000178732	
73504.9	      0.000181171	
73550.6	      0.000182247	
73596.3	      0.000181966	
73642.1	      0.000180335	
73687.8	      0.000177375	
73733.6	      0.000173097	
73779.3	      0.000167534	
73825	      0.000160708	
73870.8	      0.000152665	
73916.5	      0.000143439	
73962.3	      0.00013309	
74008	      0.000121672	
74053.7	      0.000109256	
74099.5	      9.59171e-05	
74145.2	      8.17411e-05	
74191	      6.68236e-05	
74236.7	      5.12616e-05	
74282.4	      3.51712e-05	
74328.2	      1.86594e-05	
74373.9	      1.85799e-06	
74419.7	      -1.51162e-05	
74465.4	      -3.21219e-05	
74511.1	      -4.90334e-05	
74556.9	      -6.57062e-05	
74602.6	      -8.20073e-05	
74648.4	      -9.77953e-05	
74694.1	      -0.000112934	
74739.9	      -0.00012729	
74785.6	      -0.000140728	
74831.3	      -0.00015313	
74877.1	      -0.000164369	
74922.8	      -0.000174344	
74968.6	      -0.000182946	
75014.3	      -0.000190096	
75060	      -0.000195712	
75105.8	      -0.000199739	
75151.5	      -0.000202127	
75197.3	      -0.000202852	
75243	      -0.000201901	
75288.7	      -0.000199278	
75334.5	      -0.00019501	
75380.2	      -0.000189131	
75426	      -0.000181704	
75471.7	      -0.000172792	
75517.4	      -0.000162487	
75563.2	      -0.00015088	
75608.9	      -0.000138085	
75654.7	      -0.000124214	
75700.4	      -0.000109397	
75746.1	      -9.37637e-05	
75791.9	      -7.74512e-05	
75837.6	      -6.06019e-05	
75883.4	      -4.33551e-05	
75929.1	      -2.58613e-05	
75974.8	      -8.25731e-06	
76020.6	      9.3038e-06	
76066.3	      2.66896e-05	
76112.1	      4.37514e-05	
76157.8	      6.03624e-05	
76203.5	      7.6385e-05	
76249.3	      9.16994e-05	
76295	      0.000106184	
76340.8	      0.00011973	
76386.5	      0.000132234	
76432.2	      0.000143601	
76478	      0.000153748	
76523.7	      0.000162597	
76569.5	      0.000170086	
76615.2	      0.000176157	
76660.9	      0.00018077	
76706.7	      0.000183887	
76752.4	      0.000185491	
76798.2	      0.000185567	
76843.9	      0.000184118	
76889.7	      0.000181155	
76935.4	      0.000176702	
76981.1	      0.000170795	
77026.9	      0.000163478	
77072.6	      0.00015481	
77118.4	      0.000144856	
77164.1	      0.000133697	
77209.8	      0.000121417	
77255.6	      0.000108117	
77301.3	      9.38979e-05	
77347.1	      7.8876e-05	
77392.8	      6.31689e-05	
77438.5	      4.69034e-05	
77484.3	      3.0211e-05	
77530	      1.32238e-05	
77575.8	      -3.91689e-06	
77621.5	      -2.10778e-05	
77667.2	      -3.81133e-05	
77713	      -5.48927e-05	
77758.7	      -7.12723e-05	
77804.5	      -8.71265e-05	
77850.2	      -0.00010232	
77895.9	      -0.000116735	
77941.7	      -0.000130252	
77987.4	      -0.00014276	
78033.2	      -0.000154161	
78078.9	      -0.000164358	
78124.6	      -0.000173274	
78170.4	      -0.000180831	
78216.1	      -0.000186976	
78261.9	      -0.000191652	
78307.6	      -0.000194834	
78353.3	      -0.000196491	
78399.1	      -0.000196622	
78444.8	      -0.000195227	
78490.6	      -0.000192332	
78536.3	      -0.000187968	
78582	      -0.000182184	
78627.8	      -0.000175045	
78673.5	      -0.000166618	
78719.3	      -0.000156997	
78765	      -0.000146265	
78810.7	      -0.000134535	
78856.5	      -0.000121898	
78902.2	      -0.000108478	
78948	      -9.43665e-05	
78993.7	      -7.96817e-05	
79039.5	      -6.4515e-05	
79085.2	      -4.89656e-05	
79130.9	      -3.31225e-05	
79176.7	      -1.70624e-05	
79222.4	      -8.74823e-07	
79268.2	      1.53817e-05	
79313.9	      3.161e-05	
79359.6	      4.77559e-05	
79405.4	      6.37059e-05	
79451.1	      7.9389e-05	
79496.9	      9.46683e-05	
79542.6	      0.000109434	
79588.3	      0.000123522	
79634.1	      0.000136767	
79679.8	      0.000148975	
79725.6	      0.000159925	
79771.3	      0.000169394	
79817	      0.000177117	
79862.8	      0.000182842	
79908.5	      0.000186287	
79954.3	      0.000187182	
80000	      0.000188085	
